Carlos,13/09/2019,35,1
pedro,03/08/2019,75,2
sdf,05/08/2019,110,1
Jhosuel,17/08/2019,250,2
jj,23/08/2019,150,2
john,23/08/2019,150,2
john,23/08/2019,150,2
john,23/08/2019,150,2
JOHN,23/08/2019,125,2
